pages\blocks\authorized\JobAlertPage.class
pages\blocks\notAuthorized\RegStepFourPage.class
elements\Radio.class
services\QuizService.class
pages\blocks\notAuthorized\LoginValidatePage.class
services\FieldsOfStudyService.class
pages\blocks\notAuthorized\RegStepOnePage.class
pages\blocks\notAuthorized\JobSearchPage.class
services\FrenchLangService.class
enums\Questions.class
elements\BaseElement.class
pages\blocks\notAuthorized\RegStepTwoPage.class
enums\Gender.class
elements\Checkbox.class
services\AuthorizationService$1.class
elements\Label.class
pages\blocks\notAuthorized\WagesSearchPage.class
properties\PropertyManager.class
services\AuthorizationService.class
pages\blocks\notAuthorized\FieldOfStudyPage.class
pages\blocks\authorized\QuizzesPage.class
pages\blocks\authorized\WorkPreferenceQuizPage.class
services\JobSearchingService.class
pages\blocks\notAuthorized\LoginPage.class
pages\blocks\notAuthorized\MainPage.class
pages\blocks\notAuthorized\RegStepThreePage.class
elements\Collection.class
pages\blocks\notAuthorized\SkillsKnowledgePage.class
utils\Assertions.class
pages\blocks\notAuthorized\RegInstructionsPage.class
properties\PropertyManager$Props.class
pages\blocks\notAuthorized\InRegisterTermsOfUsePage.class
pages\blocks\authorized\AuthorizedMainPage.class
pages\blocks\notAuthorized\MailPage.class
elements\Input.class
elements\Selector.class
pages\blocks\authorized\DashboardPage.class
services\SkillsCheckService.class
elements\Button.class
utils\Logger.class
services\JobAlertServices.class
services\RegistrationService.class
services\WagesService.class
